<svg width="174" height="20" viewBox="0 0 174 20" fill="none" xmlns="http://www.w3.org/2000/svg">
<path d="M51.0769 2.85693C55.2068 2.85693 58.3649 6.01803 58.3649 9.96939C58.3649 13.9208 55.2068 17.0819 51.0769 17.0819H46.1575C45.9753 17.0819 45.7931 16.8995 45.7931 16.7171V3.22168C45.7931 3.0393 45.9753 2.85693 46.1575 2.85693H51.0769ZM48.8298 5.5925V14.3463H51.0769C53.3848 14.3463 55.3282 12.401 55.3282 9.96939C55.3282 7.53778 53.5062 5.5925 51.0769 5.5925H48.8298Z" fill="#FF3008"/>
<path d="M69.1146 2.55322C73.4875 2.55322 76.8278 5.89669 76.8278 9.96964C76.8278 14.0426 73.4875 17.3861 69.1146 17.3861C64.7418 17.3861 61.4015 14.0426 61.4015 9.96964C61.4015 5.95748 64.7418 2.55322 69.1146 2.55322ZM69.1146 14.6505C71.6655 14.6505 73.7911 12.6444 73.7911 9.96964C73.7911 7.35565 71.6655 5.28879 69.1146 5.28879C66.5638 5.28879 64.4382 7.29486 64.4382 9.96964C64.4382 12.6444 66.5638 14.6505 69.1146 14.6505Z" fill="#FF3008"/>
<path d="M87.4562 2.55322C91.829 2.55322 95.1693 5.89669 95.1693 9.96964C95.1693 14.0426 91.829 17.3861 87.4562 17.3861C83.0834 17.3861 79.743 14.0426 79.743 9.96964C79.743 5.95748 83.0834 2.55322 87.4562 2.55322ZM87.4562 14.6505C90.007 14.6505 92.1327 12.6444 92.1327 9.96964C92.1327 7.35565 90.007 5.28879 87.4562 5.28879C84.9054 5.28879 82.7797 7.29486 82.7797 9.96964C82.7797 12.6444 84.9054 14.6505 87.4562 14.6505Z" fill="#FF3008"/>
<path d="M99.1779 3.22168C99.1779 3.0393 99.3601 2.85693 99.5423 2.85693H105.494C108.349 2.85693 110.353 4.9238 110.353 7.53778C110.353 10.5773 107.802 11.7323 107.802 11.7323L110.535 16.5955C110.656 16.8387 110.474 17.1426 110.231 17.1426H107.802C107.681 17.1426 107.559 17.0819 107.498 16.9603L104.887 12.1578H102.275V16.7779C102.275 16.9603 102.093 17.1426 101.911 17.1426H99.603C99.4208 17.1426 99.2386 16.9603 99.2386 16.7779V3.22168H99.1779ZM105.373 5.5925H102.215V9.36149H105.373C106.466 9.36149 107.316 8.57122 107.316 7.53778C107.316 6.44356 106.527 5.5925 105.373 5.5925Z" fill="#FF3008"/>
<path d="M120.495 2.91797C124.625 2.91797 127.783 6.07906 127.783 10.0304C127.783 13.9818 124.625 17.1429 120.495 17.1429H115.576C115.394 17.1429 115.211 16.9605 115.211 16.7781V3.3435C115.211 3.16113 115.394 2.97876 115.576 2.97876H120.495V2.91797ZM118.248 5.71432V14.4681H120.495C122.803 14.4681 124.747 12.5228 124.747 10.0912C124.747 7.65961 122.925 5.71432 120.495 5.71432H118.248Z" fill="#FF3008"/>
<path d="M134.342 13.7384L133.188 16.8387C133.128 16.9603 133.006 17.0819 132.824 17.0819H130.395C130.152 17.0819 129.97 16.8387 130.03 16.5955L135.314 3.10009C135.375 2.97851 135.496 2.85693 135.679 2.85693H138.412C138.533 2.85693 138.715 2.97851 138.776 3.10009L144.06 16.5955C144.181 16.8387 143.999 17.0819 143.695 17.0819H141.266C141.084 17.0819 140.962 16.9603 140.902 16.8387L139.748 13.7384H134.342ZM137.075 6.44356L135.375 11.1244H138.837L137.075 6.44356Z" fill="#FF3008"/>
<path d="M146.975 6.74751C146.975 4.49827 148.918 2.61377 151.955 2.61377C154.384 2.61377 155.842 3.76878 156.389 4.25511C156.51 4.37669 156.51 4.61985 156.389 4.80222L154.992 6.20039C154.87 6.32198 154.627 6.32198 154.506 6.20039C154.142 5.83565 153.291 5.28854 152.137 5.28854C150.923 5.28854 150.012 6.01802 150.012 6.8083C150.012 9.42228 157.239 7.90252 157.239 13.0089C157.239 15.5621 155.295 17.5074 151.834 17.5074C149.04 17.5074 147.279 16.0484 146.671 15.4405C146.55 15.3189 146.55 15.0758 146.671 14.8934L148.007 13.556C148.129 13.4344 148.372 13.4344 148.493 13.556C148.979 13.9815 150.012 14.8326 151.591 14.8326C153.109 14.8326 154.142 14.0423 154.142 13.0089C154.142 10.2733 146.975 11.7931 146.975 6.74751Z" fill="#FF3008"/>
<path d="M170.236 3.22168V8.57122H164.163V3.22168C164.163 3.0393 163.98 2.85693 163.798 2.85693H161.49C161.308 2.85693 161.126 3.0393 161.126 3.22168V16.7171C161.126 16.8995 161.308 17.0819 161.49 17.0819H163.798C163.98 17.0819 164.163 16.8995 164.163 16.7171V11.3068H170.236V16.7171C170.236 16.8995 170.418 17.0819 170.6 17.0819H172.908C173.09 17.0819 173.273 16.8995 173.273 16.7171V3.22168C173.273 3.0393 173.09 2.85693 172.908 2.85693H170.6C170.418 2.85693 170.236 3.0393 170.236 3.22168Z" fill="#FF3008"/>
<path d="M33.7661 4.74164C32.2477 1.82371 29.1503 0 25.8707 0H0.848534C0.0589987 0 -0.305402 0.911854 0.241199 1.45897L5.70721 6.93009C6.19308 7.41641 6.86115 7.65957 7.52922 7.65957H25.1419C26.1744 7.65957 27.1461 8.38906 27.3891 9.42249C27.6927 10.8815 26.5995 12.2188 25.2027 12.2188H13.056C12.2664 12.2188 11.902 13.1307 12.4486 13.6778L17.9146 19.1489C18.4005 19.6353 19.0686 19.8784 19.7366 19.8784H25.2634C32.3692 20 37.7745 12.3404 33.7661 4.74164Z" fill="#FF3008"/>
</svg>
