<svg width="26" height="22" viewBox="0 0 26 22" fill="none" xmlns="http://www.w3.org/2000/svg">
<path d="M14.7321 21C13.9622 22.3333 12.0378 22.3333 11.2679 21L0.875645 3C0.105845 1.66666 1.0681 -2.44188e-06 2.6077 -2.30729e-06L23.3923 -4.9024e-07C24.9319 -3.55644e-07 25.8942 1.66667 25.1244 3L14.7321 21Z" fill="#551037"/>
<path d="M14.7321 21C13.9622 22.3333 12.0378 22.3333 11.2679 21L0.875645 3C0.105845 1.66666 1.0681 -2.44188e-06 2.6077 -2.30729e-06L23.3923 -4.9024e-07C24.9319 -3.55644e-07 25.8942 1.66667 25.1244 3L14.7321 21Z" fill="#5EAEE0"/>
</svg>
